examples/test_template/chip-expo-2021-template-3-axi_stream/vivado/dump.vcd
$date
   Thu Sep  9 21:05:14 2021
$end
$version
  2020.2
$end
$timescale
  1ps
$end
$scope module tb $end
$var reg 32 ! test_id $end
$var reg 1 " clk $end
$var reg 1 # reset_n $end
$var reg 80 $ in_tdata [79:0] $end
$var reg 1 % in_tvalid $end
$var reg 1 & in_tready $end
$var reg 40 ' expect_tdata [39:0] $end
$var reg 40 ( out_tdata [39:0] $end
$var reg 1 ) out_tvalid $end
$var reg 1 * out_tready $end
$var reg 32 + cnt_wr $end
$var reg 32 , cnt_rd $end
$var reg 32 - cnt_ok $end
$var reg 32 . cnt_error $end
$var reg 1 / test_start $end
$var reg 1 0 test_timeout $end
$var reg 1 1 test_done $end
$var reg 32 2 out_ready_cnt $end
$var reg 32 3 q_data $end
$var real 32 4 cv_all $end
$upscope $end
$enddefinitions $end
#0
$dumpvars
b0 !
0"
0#
b0 $
0%
0&
bx '
b0 (
0)
1*
b0 +
b0 ,
b0 -
b0 .
0/
00
01
b0 2
b0 3
r0 4
$end
#5000
1"
r0 4
#10000
0"
#15000
1"
r0 4
#20000
0"
#25000
1"
r0 4
#30000
0"
#35000
1"
r0 4
#40000
0"
#45000
1"
r0 4
#50000
0"
#55000
1"
r0 4
#60000
0"
#65000
1"
r0 4
#70000
0"
#75000
1"
r0 4
#80000
0"
#85000
1"
r0 4
#90000
0"
#95000
1"
r0 4
#100000
0"
1#
1&
#105000
1"
r35.71428571428572 4
#110000
0"
#115000
1"
r35.71428571428572 4
#120000
0"
#125000
1"
r35.71428571428572 4
#130000
0"
#135000
1"
r35.71428571428572 4
#140000
0"
#145000
1"
r35.71428571428572 4
#150000
0"
#155000
1"
r35.71428571428572 4
#160000
0"
#165000
1"
r35.71428571428572 4
#170000
0"
#175000
1"
r35.71428571428572 4
#180000
0"
#185000
1"
r35.71428571428572 4
#190000
0"
#195000
1"
r35.71428571428572 4
#200000
0"
#205000
1"
r35.71428571428572 4
#210000
0"
#215000
1"
r35.71428571428572 4
#220000
0"
#225000
1"
r35.71428571428572 4
#230000
0"
#235000
1"
r35.71428571428572 4
#240000
0"
#245000
1"
r35.71428571428572 4
#250000
0"
#255000
1"
r35.71428571428572 4
#260000
0"
#265000
1"
r35.71428571428572 4
#270000
0"
#275000
1"
r35.71428571428572 4
#280000
0"
#285000
1"
r35.71428571428572 4
#290000
0"
#295000
1"
r35.71428571428572 4
#300000
0"
#305000
1"
r35.71428571428572 4
#310000
0"
#315000
1"
r35.71428571428572 4
#320000
0"
#325000
1"
r35.71428571428572 4
#330000
0"
#335000
1"
r35.71428571428572 4
#340000
0"
#345000
1"
r35.71428571428572 4
#350000
0"
#355000
1"
r35.71428571428572 4
#360000
0"
#365000
1"
r35.71428571428572 4
#370000
0"
#375000
1"
r35.71428571428572 4
#380000
0"
#385000
1"
r35.71428571428572 4
#390000
0"
#395000
1"
r35.71428571428572 4
#400000
0"
#405000
1"
r35.71428571428572 4
#410000
0"
#415000
1"
r35.71428571428572 4
#420000
0"
#425000
1"
r35.71428571428572 4
#430000
0"
#435000
1"
r35.71428571428572 4
#440000
0"
#445000
1"
r35.71428571428572 4
#450000
0"
#455000
1"
r35.71428571428572 4
#460000
0"
#465000
1"
r35.71428571428572 4
#470000
0"
#475000
1"
r35.71428571428572 4
#480000
0"
#485000
1"
r35.71428571428572 4
#490000
0"
#495000
1"
r35.71428571428572 4
#500000
0"
#505000
1"
r35.71428571428572 4
#510000
0"
#515000
1"
r35.71428571428572 4
#520000
0"
#525000
1"
r35.71428571428572 4
#530000
0"
#535000
1"
r35.71428571428572 4
#540000
0"
#545000
1"
r35.71428571428572 4
#550000
0"
#555000
1"
r35.71428571428572 4
#560000
0"
#565000
1"
r35.71428571428572 4
#570000
0"
#575000
1"
r35.71428571428572 4
#580000
0"
#585000
1"
r35.71428571428572 4
#590000
0"
#595000
1"
r35.71428571428572 4
#600000
0"
#605000
1"
r35.71428571428572 4
#606000
b100000101000010010000110100010001000101 $
1%
b100000101000010010000110100010001000101 (
1)
#610000
0"
#615000
1"
b100000101000010010000110100010001000101 '
b1 +
b1 ,
b1 -
r57.14285714285715 4
#616000
b100011001000111010010000100100101001010 $
1%
b100011001000111010010000100100101001010 (
#620000
0"
#625000
1"
b100011001000111010010000100100101001010 '
b10 +
b10 ,
b10 -
r57.14285714285715 4
#626000
b0 $
0%
b0 (
0)
#630000
0"
#635000
1"
r57.14285714285715 4
#640000
0"
#645000
1"
r57.14285714285715 4
#646000
b100101101001100010011010100111101001110 $
1%
b100101101001100010011010100111101001110 (
1)
#650000
0"
#655000
1"
b100101101001100010011010100111101001110 '
b11 +
b11 ,
b11 -
b11 2
r57.14285714285715 4
#656000
b101000001010001010100100101001101010100 $
1%
0&
b101000001010001010100100101001101010100 (
0*
#660000
0"
#665000
1"
b10 2
r78.57142857142857 4
#670000
0"
#675000
1"
b1 2
r78.57142857142857 4
#680000
0"
#685000
1"
b0 2
r78.57142857142857 4
#686000
1&
1*
#690000
0"
#695000
1"
b101000001010001010100100101001101010100 '
b100 +
b100 ,
b100 -
r83.33333333333333 4
#696000
b101010101010110010101110101100001011001 $
1%
b101010101010110010101110101100001011001 (
#700000
0"
#705000
1"
b101010101010110010101110101100001011001 '
b101 +
b101 ,
b101 -
r83.33333333333333 4
#706000
b101101001100001011000100110001101100100 $
1%
b101101001100001011000100110001101100100 (
#710000
0"
#715000
1"
b101101001100001011000100110001101100100 '
b110 +
b110 ,
b110 -
b0 2
r83.33333333333333 4
#716000
b110010101100110011001110110100001101001 $
1%
b110010101100110011001110110100001101001 (
1*
#720000
0"
#725000
1"
b110010101100110011001110110100001101001 '
b111 +
b111 ,
b111 -
r83.33333333333333 4
#726000
b0 $
0%
b0 (
0)
#730000
0"
#735000
1"
r83.33333333333333 4
#736000
b110101001101011011011000110110101101111 $
1%
b110101001101011011011000110110101101111 (
1)
#740000
0"
#745000
1"
b110101001101011011011000110110101101111 '
b1000 +
b1000 ,
b1000 -
r83.33333333333333 4
#746000
b0 $
0%
b0 (
0)
#750000
0"
#755000
1"
b11 2
r83.33333333333333 4
#756000
0&
0*
#760000
0"
#765000
1"
b10 2
r90.47619047619047 4
#770000
0"
#775000
1"
b1 2
r90.47619047619047 4
#780000
0"
#785000
1"
b0 2
r90.47619047619047 4
#786000
1&
1*
#790000
0"
#795000
1"
r90.47619047619047 4
#800000
0"
#805000
1"
r90.47619047619047 4
#810000
0"
#815000
1"
r90.47619047619047 4
#820000
0"
#825000
1"
r90.47619047619047 4
#830000
0"
#835000
1"
r90.47619047619047 4
#840000
0"
#845000
1"
r90.47619047619047 4
#850000
0"
#855000
1"
r90.47619047619047 4
#856000
b100000101000010010000110100010001000101 $
1%
b100000101000010010000110100010001000101 (
1)
#860000
0"
#865000
1"
b100000101000010010000110100010001000101 '
b1001 +
b1001 ,
b1001 -
r90.47619047619047 4
#866000
b100011001000111010010000100100101001010 $
1%
b100011001000111010010000100100101001010 (
#870000
0"
#875000
1"
b100011001000111010010000100100101001010 '
b1010 +
b1010 ,
b1010 -
r90.47619047619047 4
#876000
b100101101001100010011010100111101001110 $
1%
b100101101001100010011010100111101001110 (
#880000
0"
#885000
1"
b100101101001100010011010100111101001110 '
b1011 +
b1011 ,
b1011 -
r90.47619047619047 4
#886000
b0 $
0%
b0 (
0)
#890000
0"
#895000
1"
r90.47619047619047 4
#900000
0"
#905000
1"
r90.47619047619047 4
#910000
0"
#915000
1"
r90.47619047619047 4
#920000
0"
#925000
1"
r90.47619047619047 4
#930000
0"
#935000
1"
r90.47619047619047 4
#940000
0"
#945000
1"
r90.47619047619047 4
#950000
0"
#955000
1"
r90.47619047619047 4
#960000
0"
#965000
1"
r90.47619047619047 4
#970000
0"
#975000
1"
r90.47619047619047 4
#980000
0"
#985000
1"
r90.47619047619047 4
#990000
0"
#995000
1"
r90.47619047619047 4
#996000
b101000001010001010100100101001101010100 $
1%
b101000001010001010100100101001101010100 (
1)
#1000000
0"
#1005000
1"
b101000001010001010100100101001101010100 '
b1100 +
b1100 ,
b1100 -
r90.47619047619047 4
#1006000
b101010101010110010101110101100001011001 $
1%
b101010101010110010101110101100001011001 (
#1010000
0"
#1015000
1"
b101010101010110010101110101100001011001 '
b1101 +
b1101 ,
b1101 -
r90.47619047619047 4
#1016000
b101101001100001011000100110001101100100 $
1%
b101101001100001011000100110001101100100 (
#1020000
0"
#1025000
1"
b101101001100001011000100110001101100100 '
b1110 +
b1110 ,
b1110 -
r90.47619047619047 4
#1026000
b0 $
0%
b0 (
0)
#1030000
0"
#1035000
1"
r90.47619047619047 4
#1040000
0"
#1045000
1"
r90.47619047619047 4
#1050000
0"
#1055000
1"
r90.47619047619047 4
#1060000
0"
#1065000
1"
r90.47619047619047 4
#1070000
0"
#1075000
1"
r90.47619047619047 4
#1080000
0"
#1085000
1"
r90.47619047619047 4
#1090000
0"
#1095000
1"
r90.47619047619047 4
#1100000
0"
#1105000
1"
r90.47619047619047 4
#1110000
0"
#1115000
1"
r90.47619047619047 4
#1120000
0"
#1125000
1"
r90.47619047619047 4
#1130000
0"
#1135000
1"
r90.47619047619047 4
#1140000
0"
#1145000
1"
r90.47619047619047 4
#1150000
0"
#1155000
1"
r90.47619047619047 4
#1160000
0"
#1165000
1"
r90.47619047619047 4
#1170000
0"
#1175000
1"
r90.47619047619047 4
#1180000
0"
#1185000
1"
r90.47619047619047 4
#1190000
0"
#1195000
1"
r90.47619047619047 4
#1200000
0"
#1205000
1"
r90.47619047619047 4
#1210000
0"
#1215000
1"
r90.47619047619047 4
#1220000
0"
#1225000
1"
r90.47619047619047 4
#1230000
0"
#1235000
1"
r90.47619047619047 4
#1240000
0"
#1245000
1"
r90.47619047619047 4
#1250000
0"
#1255000
1"
r90.47619047619047 4
#1260000
0"
#1265000
1"
r90.47619047619047 4
#1270000
0"
#1275000
1"
r90.47619047619047 4
#1280000
0"
#1285000
1"
r90.47619047619047 4
#1290000
0"
#1295000
1"
r90.47619047619047 4
#1300000
0"
#1305000
1"
r90.47619047619047 4
#1310000
0"
#1315000
1"
r90.47619047619047 4
#1320000
0"
#1325000
1"
r90.47619047619047 4
#1330000
0"
#1335000
1"
r90.47619047619047 4
#1340000
0"
#1345000
1"
r90.47619047619047 4
#1350000
0"
#1355000
1"
r90.47619047619047 4
#1360000
0"
#1365000
1"
r90.47619047619047 4
#1370000
0"
#1375000
1"
r90.47619047619047 4
#1380000
0"
#1385000
1"
r90.47619047619047 4
#1390000
0"
#1395000
1"
r90.47619047619047 4
#1400000
0"
#1405000
1"
r90.47619047619047 4
#1410000
0"
#1415000
1"
r90.47619047619047 4
#1420000
0"
#1425000
1"
r90.47619047619047 4
#1430000
0"
#1435000
1"
r90.47619047619047 4
#1440000
0"
#1445000
1"
r90.47619047619047 4
#1450000
0"
#1455000
1"
r90.47619047619047 4
#1460000
0"
#1465000
1"
r90.47619047619047 4
#1470000
0"
#1475000
1"
r90.47619047619047 4
#1480000
0"
#1485000
1"
r90.47619047619047 4
#1490000
0"
#1495000
1"
r90.47619047619047 4
#1500000
0"
#1505000
1"
r90.47619047619047 4
#1510000
0"
#1515000
1"
r90.47619047619047 4
#1520000
0"
#1525000
1"
r90.47619047619047 4
#1530000
0"
#1535000
1"
11
